%YAML 1.1
%TAG !u! tag:unity3d.com,2011:
--- !u!114 &-5926710122654390255
MonoBehaviour:
  m_ObjectHideFlags: 3
  m_CorrespondingSourceObject: {fileID: 0}
  m_PrefabInstance: {fileID: 0}
  m_PrefabAsset: {fileID: 0}
  m_GameObject: {fileID: 0}
  m_Enabled: 1
  m_EditorHideFlags: 0
  m_Script: {fileID: 11500000, guid: b3f6f3f7c722b4544b97e3c75840aa33, type: 3}
  m_Name: AutoExposure
  m_EditorClassIdentifier: 
  active: 1
  enabled:
    overrideState: 1
    value: 1
  filtering:
    overrideState: 1
    value: {x: 50, y: 95}
  minLuminance:
    overrideState: 1
    value: 0
  maxLuminance:
    overrideState: 1
    value: 0
  keyValue:
    overrideState: 1
    value: 1
  eyeAdaptation:
    overrideState: 1
    value: 0
  speedUp:
    overrideState: 1
    value: 2
  speedDown:
    overrideState: 1
    value: 1
--- !u!114 &-4369763817167479093
MonoBehaviour:
  m_ObjectHideFlags: 3
  m_CorrespondingSourceObject: {fileID: 0}
  m_PrefabInstance: {fileID: 0}
  m_PrefabAsset: {fileID: 0}
  m_GameObject: {fileID: 0}
  m_Enabled: 1
  m_EditorHideFlags: 0
  m_Script: {fileID: 11500000, guid: 40b924e2dad56384a8df2a1e111bb675, type: 3}
  m_Name: Vignette
  m_EditorClassIdentifier: 
  active: 1
  enabled:
    overrideState: 1
    value: 1
  mode:
    overrideState: 1
    value: 0
  color:
    overrideState: 1
    value: {r: 0, g: 0, b: 0, a: 1}
  center:
    overrideState: 1
    value: {x: 0.5, y: 0.5}
  intensity:
    overrideState: 1
    value: 0.146
  smoothness:
    overrideState: 1
    value: 1
  roundness:
    overrideState: 1
    value: 1
  rounded:
    overrideState: 1
    value: 1
  mask:
    overrideState: 0
    value: {fileID: 0}
    defaultState: 1
  opacity:
    overrideState: 0
    value: 1
--- !u!114 &-1527311784170050814
MonoBehaviour:
  m_ObjectHideFlags: 3
  m_CorrespondingSourceObject: {fileID: 0}
  m_PrefabInstance: {fileID: 0}
  m_PrefabAsset: {fileID: 0}
  m_GameObject: {fileID: 0}
  m_Enabled: 1
  m_EditorHideFlags: 0
  m_Script: {fileID: 11500000, guid: 48a79b01ea5641d4aa6daa2e23605641, type: 3}
  m_Name: Bloom
  m_EditorClassIdentifier: 
  active: 1
  enabled:
    overrideState: 1
    value: 1
  intensity:
    overrideState: 1
    value: 1
  threshold:
    overrideState: 1
    value: 0.8
  softKnee:
    overrideState: 1
    value: 0.5
  clamp:
    overrideState: 1
    value: 3
  diffusion:
    overrideState: 1
    value: 7
  anamorphicRatio:
    overrideState: 1
    value: 0
  color:
    overrideState: 1
    value: {r: 1.4142135, g: 1.4142135, b: 1.4142135, a: 1}
  fastMode:
    overrideState: 1
    value: 0
  dirtTexture:
    overrideState: 0
    value: {fileID: 0}
    defaultState: 1
  dirtIntensity:
    overrideState: 0
    value: 0
--- !u!114 &11400000
MonoBehaviour:
  m_ObjectHideFlags: 0
  m_CorrespondingSourceObject: {fileID: 0}
  m_PrefabInstance: {fileID: 0}
  m_PrefabAsset: {fileID: 0}
  m_GameObject: {fileID: 0}
  m_Enabled: 1
  m_EditorHideFlags: 0
  m_Script: {fileID: 11500000, guid: 8e6292b2c06870d4495f009f912b9600, type: 3}
  m_Name: PostProcessing
  m_EditorClassIdentifier: 
  settings:
  - {fileID: -1527311784170050814}
  - {fileID: -5926710122654390255}
  - {fileID: -4369763817167479093}
  - {fileID: 4558779046823001898}
--- !u!114 &4558779046823001898
MonoBehaviour:
  m_ObjectHideFlags: 3
  m_CorrespondingSourceObject: {fileID: 0}
  m_PrefabInstance: {fileID: 0}
  m_PrefabAsset: {fileID: 0}
  m_GameObject: {fileID: 0}
  m_Enabled: 1
  m_EditorHideFlags: 0
  m_Script: {fileID: 11500000, guid: 7a34fa72bd4185749832024e9c8010bf, type: 3}
  m_Name: ScreenSpaceReflections
  m_EditorClassIdentifier: 
  active: 1
  enabled:
    overrideState: 1
    value: 1
  preset:
    overrideState: 0
    value: 2
  maximumIterationCount:
    overrideState: 0
    value: 16
  resolution:
    overrideState: 0
    value: 0
  thickness:
    overrideState: 0
    value: 8
  maximumMarchDistance:
    overrideState: 0
    value: 100
  distanceFade:
    overrideState: 0
    value: 0.5
  vignette:
    overrideState: 0
    value: 0.5
